{
  "acf_config": [
    {
      "name": "style",
      "path": "style.css"
    },
    {
      "name": "source",
      "path": "functions/acf"
    },
    {
      "name": "dest",
      "path": "functions/helpers"
    }
  ]
}
